<svg xmlns="http://www.w3.org/2000/svg" xmlns:xlink="http://www.w3.org/1999/xlink" preserveAspectRatio="xMidYMid" width="29" height="28.84" viewBox="0 0 29 28.84">
  <defs>
    <style>
      .cls-1 {
        fill: #f0f0f0;
        fill-rule: evenodd;
      }
    </style>
  </defs>
  <path d="M10.000,28.840 C9.202,28.840 9.000,28.639 9.000,27.840 L9.000,22.840 L3.000,22.840 C1.405,22.840 0.000,21.436 0.000,19.840 L-0.000,2.892 C-0.000,1.281 1.305,-0.011 2.900,-0.011 L26.100,-0.011 C27.695,-0.011 29.000,1.295 29.000,2.892 L29.000,19.840 C29.000,21.436 27.595,22.840 26.000,22.840 L17.000,22.840 L12.000,27.840 C11.968,28.976 11.363,28.840 11.000,28.840 L11.000,28.840 L10.000,28.840 M12.000,19.840 L12.000,23.840 L16.000,19.840 L26.000,19.840 L26.000,2.840 L3.000,2.840 L3.000,19.840 L12.000,19.840 M22.000,12.840 L19.000,12.840 L19.000,9.840 L22.000,9.840 L22.000,12.840 M16.000,12.840 L13.000,12.840 L13.000,9.840 L16.000,9.840 L16.000,12.840 M10.000,12.840 L7.000,12.840 L7.000,9.840 L10.000,9.840 L10.000,12.840 Z" class="cls-1"/>
</svg>
